{
	"variables": [],
	"info": {
		"name": "05_Declare_owningEntity_LineOfBusiness_project_platform",
		"_postman_id": "c087db62-b4d0-52de-f449-52b2679c3542",
		"description": "",
		"schema": "https://schema.getpostman.com/json/collection/v2.0.0/collection.json"
	},
	"item": [
		{
			"name": "Declare owningEntity",
			"event": [
				{
					"listen": "test",
					"script": {
						"type": "text/javascript",
						"exec": [
							"tests[\"Status code is 201\"] = (responseCode.code === 201) || (responseCode.code === 207) ;",
							""
						]
					}
				}
			],
			"request": {
				"url": "{{url-vid}}/vid/maintenance/category_parameter/owningEntity",
				"method": "POST",
				"header": [
					{
						"key": "Content-Type",
						"value": "application/json",
						"description": ""
					}
				],
				"body": {
					"mode": "raw",
					"raw": "{\n    \"options\": [\"{{owning_entity}}\"]\n}"
				},
				"description": ""
			},
			"response": []
		},
		{
			"name": "Declare platform",
			"event": [
				{
					"listen": "test",
					"script": {
						"type": "text/javascript",
						"exec": [
							"tests[\"Status code is 201\"] = (responseCode.code === 201) || (responseCode.code === 207) ;"
						]
					}
				}
			],
			"request": {
				"url": "{{url-vid}}/vid/maintenance/category_parameter/platform",
				"method": "POST",
				"header": [
					{
						"key": "Content-Type",
						"value": "application/json",
						"description": ""
					}
				],
				"body": {
					"mode": "raw",
					"raw": "{\n    \"options\": [\"{{platform}}\"]\n}"
				},
				"description": ""
			},
			"response": []
		},
		{
			"name": "Declare lineOfBusiness",
			"event": [
				{
					"listen": "test",
					"script": {
						"type": "text/javascript",
						"exec": [
							"tests[\"Status code is 201\"] = (responseCode.code === 201) || (responseCode.code === 207) ;"
						]
					}
				}
			],
			"request": {
				"url": "{{url-vid}}/vid/maintenance/category_parameter/lineOfBusiness",
				"method": "POST",
				"header": [
					{
						"key": "Content-Type",
						"value": "application/json",
						"description": ""
					}
				],
				"body": {
					"mode": "raw",
					"raw": "{\n    \"options\": [\"{{lineofbusiness}}\"]\n}"
				},
				"description": ""
			},
			"response": []
		},
		{
			"name": "Declare project",
			"event": [
				{
					"listen": "test",
					"script": {
						"type": "text/javascript",
						"exec": [
							"tests[\"Status code is 201\"] = (responseCode.code === 201) || (responseCode.code === 207) ;"
						]
					}
				}
			],
			"request": {
				"url": "{{url-vid}}/vid/maintenance/category_parameter/project",
				"method": "POST",
				"header": [
					{
						"key": "Content-Type",
						"value": "application/json",
						"description": ""
					}
				],
				"body": {
					"mode": "raw",
					"raw": "{\n    \"options\": [\"{{project}}\"]\n}"
				},
				"description": ""
			},
			"response": []
		}
	]
}